module gitlab.com/vtanforsta/testgo

go 1.22.0

require (
	github.com/aws/aws-sdk-go-v2 v1.27.0
	github.com/aws/aws-sdk-go-v2/config v1.27.15
	github.com/aws/aws-sdk-go-v2/service/s3 v1.54.2
)

require (
	github.com/aws/aws-sdk-go-v2/aws/protocol/eventstream v1.6.2 // indirect
	github.com/aws/aws-sdk-go-v2/credentials v1.17.15 // indirect
	github.com/aws/aws-sdk-go-v2/feature/ec2/imds v1.16.3 // indirect
	github.com/aws/aws-sdk-go-v2/internal/configsources v1.3.7 // indirect
	github.com/aws/aws-sdk-go-v2/internal/endpoints/v2 v2.6.7 // indirect
	github.com/aws/aws-sdk-go-v2/internal/ini v1.8.0 // indirect
	github.com/aws/aws-sdk-go-v2/internal/v4a v1.3.7 // indirect
	github.com/aws/aws-sdk-go-v2/service/internal/accept-encoding v1.11.2 // indirect
	github.com/aws/aws-sdk-go-v2/service/internal/checksum v1.3.9 // indirect
	github.com/aws/aws-sdk-go-v2/service/internal/presigned-url v1.11.9 // indirect
	github.com/aws/aws-sdk-go-v2/service/internal/s3shared v1.17.7 // indirect
	github.com/aws/aws-sdk-go-v2/service/sso v1.20.8 // indirect
	github.com/aws/aws-sdk-go-v2/service/ssooidc v1.24.2 // indirect
	github.com/aws/aws-sdk-go-v2/service/sts v1.28.9 // indirect
	github.com/aws/smithy-go v1.20.2 // indirect
)
